<svg width="90" height="90" viewBox="0 0 90 90" fill="none" xmlns="http://www.w3.org/2000/svg">
<circle cx="20" cy="70" r="20" fill="white"/>
<path d="M41.1666 14.6667H43.8333C43.8333 14.1501 43.9976 13.9522 44.3576 13.5202C44.8396 12.9416 45.5 12.1501 45.5 10.6667C45.5 9.18341 44.8396 8.39175 44.3576 7.81308C43.9976 7.38091 43.8333 7.18341 43.8333 6.66675C43.8333 6.15008 43.9975 5.95241 44.3576 5.52058C44.8396 4.94175 45.5 4.15008 45.5 2.66675H42.8333C42.8333 3.18341 42.6691 3.38108 42.309 3.81291C41.827 4.39141 41.1666 5.18341 41.1666 6.66675C41.1666 8.15008 41.827 8.94175 42.309 9.52042C42.669 9.95208 42.8333 10.1501 42.8333 10.6667C42.8333 11.1834 42.669 11.3812 42.309 11.8132C41.827 12.3917 41.1666 13.1834 41.1666 14.6667Z" fill="#3766CC"/>
<path d="M68.6666 14.6667H71.3333C71.3333 14.1501 71.4976 13.9522 71.8576 13.5202C72.3396 12.9416 73 12.1501 73 10.6667C73 9.18341 72.3396 8.39175 71.8576 7.81308C71.4976 7.38091 71.3333 7.18341 71.3333 6.66675C71.3333 6.15008 71.4975 5.95241 71.8576 5.52058C72.3396 4.94175 73 4.15008 73 2.66675H70.3333C70.3333 3.18341 70.1691 3.38108 69.809 3.81291C69.327 4.39141 68.6666 5.18341 68.6666 6.66675C68.6666 8.15008 69.327 8.94175 69.809 9.52042C70.169 9.95208 70.3333 10.1501 70.3333 10.6667C70.3333 11.1834 70.169 11.3812 69.809 11.8132C69.327 12.3917 68.6666 13.1834 68.6666 14.6667Z" fill="#3766CC"/>
<path d="M27.3334 12H30C30 11.4833 30.1644 11.2855 30.5244 10.8535C31.0064 10.2748 31.6667 9.48333 31.6667 8C31.6667 6.51667 31.0064 5.725 30.5244 5.14633C30.1644 4.71417 30 4.51667 30 4C30 3.48333 30.1642 3.28567 30.5244 2.85383C31.0064 2.275 31.6667 1.48333 31.6667 0H29C29 0.516667 28.8359 0.714333 28.4757 1.14617C27.9937 1.72467 27.3334 2.51667 27.3334 4C27.3334 5.48333 27.9937 6.275 28.4757 6.85367C28.8357 7.28533 29 7.48333 29 8C29 8.51667 28.8357 8.7145 28.4757 9.1465C27.9937 9.725 27.3334 10.5167 27.3334 12Z" fill="#3766CC"/>
<path d="M54.8334 12H57.5C57.5 11.4833 57.6644 11.2855 58.0244 10.8535C58.5064 10.2748 59.1667 9.48333 59.1667 8C59.1667 6.51667 58.5064 5.725 58.0244 5.14633C57.6644 4.71417 57.5 4.51667 57.5 4C57.5 3.48333 57.6642 3.28567 58.0244 2.85383C58.5064 2.275 59.1667 1.48333 59.1667 0H56.5C56.5 0.516667 56.3359 0.714333 55.9757 1.14617C55.4937 1.72467 54.8334 2.51667 54.8334 4C54.8334 5.48333 55.4937 6.275 55.9757 6.85367C56.3357 7.28533 56.5 7.48333 56.5 8C56.5 8.51667 56.3357 8.7145 55.9757 9.1465C55.4937 9.725 54.8334 10.5167 54.8334 12Z" fill="#3766CC"/>
<path d="M87 17.3334H86V14.6667H83.3333V17.3334H80.6666V14.6667H78V17.3334H20.6666V20.0001H87C87.0884 20.0001 87.1731 20.0352 87.2357 20.0977C87.2982 20.1602 87.3333 20.245 87.3333 20.3334V71.6667C87.3333 71.7552 87.2982 71.8399 87.2357 71.9025C87.1731 71.965 87.0884 72.0001 87 72.0001H31.3333V74.6667H76.959L78.0398 78.9901C78.1119 79.2786 78.2784 79.5347 78.5127 79.7177C78.7471 79.9007 79.0359 80.0001 79.3333 80.0001H84.6666C84.964 80.0001 85.2528 79.9007 85.4872 79.7177C85.7215 79.5347 85.888 79.2786 85.9601 78.9901L87.041 74.6667C87.8292 74.6551 88.5812 74.334 89.1348 73.7727C89.6884 73.2115 89.9991 72.4551 90 71.6667V20.3334C89.999 19.538 89.6827 18.7755 89.1203 18.2131C88.5578 17.6507 87.7953 17.3343 87 17.3334ZM83.6256 77.3334H80.3743L79.7076 74.6667H84.2923L83.6256 77.3334Z" fill="#3766CC"/>
<path d="M12.6667 71.6666V20.3333C12.6667 20.2448 12.7018 20.1601 12.7643 20.0975C12.8268 20.035 12.9116 19.9999 13 19.9999H18V17.3333H13C12.2046 17.3342 11.4421 17.6505 10.8797 18.213C10.3173 18.7754 10.0009 19.5379 10 20.3333V71.6666C10.0008 72.4549 10.3116 73.2113 10.8651 73.7725C11.4187 74.3338 12.1708 74.6549 12.959 74.6666L14.0398 78.9902C14.112 79.2787 14.2785 79.5347 14.5129 79.7176C14.7472 79.9006 15.036 79.9999 15.3333 79.9999H20.6667C20.964 79.9999 21.2528 79.9005 21.4872 79.7175C21.7216 79.5345 21.8881 79.2784 21.9602 78.9899L23.041 74.6666H28.6667V71.9999H13C12.9116 71.9999 12.8268 71.9648 12.7643 71.9023C12.7018 71.8398 12.6667 71.755 12.6667 71.6666ZM20.2923 74.6666L19.6257 77.3333H16.3743L15.7077 74.6666H20.2923Z" fill="#3766CC"/>
<path d="M58 66.6667H42V69.3334H58V66.6667Z" fill="#3766CC"/>
<path d="M84.6667 24.0001C84.6667 23.6465 84.5262 23.3073 84.2762 23.0573C84.0261 22.8072 83.687 22.6667 83.3334 22.6667H16.6667C16.3131 22.6667 15.9739 22.8072 15.7239 23.0573C15.4739 23.3073 15.3334 23.6465 15.3334 24.0001V62.6667C15.3334 63.0204 15.4739 63.3595 15.7239 63.6096C15.9739 63.8596 16.3131 64.0001 16.6667 64.0001H74V61.3334H18V30.6667H20.6667C21.0202 30.6671 21.3591 30.8077 21.6091 31.0577C21.859 31.3077 21.9996 31.6466 22 32.0001V54.6667C22 55.7276 22.4215 56.745 23.1716 57.4952C23.9218 58.2453 24.9392 58.6667 26 58.6667C27.0609 58.6667 28.0783 58.2453 28.8285 57.4952C29.5786 56.745 30 55.7276 30 54.6667V32.0001C30 31.6465 30.1405 31.3073 30.3906 31.0573C30.6406 30.8072 30.9798 30.6667 31.3334 30.6667C31.687 30.6667 32.0261 30.8072 32.2762 31.0573C32.5262 31.3073 32.6667 31.6465 32.6667 32.0001V54.6667C32.6667 55.7276 33.0881 56.745 33.8383 57.4952C34.5884 58.2453 35.6058 58.6667 36.6667 58.6667C37.7276 58.6667 38.745 58.2453 39.4951 57.4952C40.2453 56.745 40.6667 55.7276 40.6667 54.6667V32.0001C40.6667 31.6465 40.8072 31.3073 41.0572 31.0573C41.3073 30.8072 41.6464 30.6667 42 30.6667C42.3537 30.6667 42.6928 30.8072 42.9429 31.0573C43.1929 31.3073 43.3334 31.6465 43.3334 32.0001V54.6667C43.3334 55.7276 43.7548 56.745 44.5049 57.4952C45.2551 58.2453 46.2725 58.6667 47.3334 58.6667C48.3942 58.6667 49.4117 58.2453 50.1618 57.4952C50.9119 56.745 51.3334 55.7276 51.3334 54.6667V32.0001C51.3334 31.6465 51.4739 31.3073 51.7239 31.0573C51.9739 30.8072 52.3131 30.6667 52.6667 30.6667C53.0203 30.6667 53.3595 30.8072 53.6095 31.0573C53.8596 31.3073 54 31.6465 54 32.0001V54.6667C54 55.7276 54.4215 56.745 55.1716 57.4952C55.9218 58.2453 56.9392 58.6667 58 58.6667C59.0609 58.6667 60.0783 58.2453 60.8285 57.4952C61.5786 56.745 62 55.7276 62 54.6667V32.0001C62 31.6465 62.1405 31.3073 62.3906 31.0573C62.6406 30.8072 62.9798 30.6667 63.3334 30.6667C63.687 30.6667 64.0261 30.8072 64.2762 31.0573C64.5262 31.3073 64.6667 31.6465 64.6667 32.0001V54.6667C64.6667 55.7276 65.0881 56.745 65.8383 57.4952C66.5884 58.2453 67.6058 58.6667 68.6667 58.6667C69.7276 58.6667 70.745 58.2453 71.4951 57.4952C72.2453 56.745 72.6667 55.7276 72.6667 54.6667V32.0001C72.6667 31.6465 72.8072 31.3073 73.0572 31.0573C73.3073 30.8072 73.6464 30.6667 74 30.6667C74.3537 30.6667 74.6928 30.8072 74.9429 31.0573C75.1929 31.3073 75.3334 31.6465 75.3334 32.0001V54.0001C75.3348 55.2373 75.8269 56.4235 76.7018 57.2984C77.5766 58.1732 78.7628 58.6653 80 58.6667H82V61.3334H76.6667V64.0001H83.3334C83.687 64.0001 84.0261 63.8596 84.2762 63.6096C84.5262 63.3595 84.6667 63.0204 84.6667 62.6667V24.0001ZM82 56.0001H80C79.4698 55.9995 78.9614 55.7886 78.5865 55.4137C78.2115 55.0387 78.0006 54.5303 78 54.0001V32.0001C78 30.9392 77.5786 29.9218 76.8285 29.1717C76.0783 28.4215 75.0609 28.0001 74 28.0001C72.9392 28.0001 71.9218 28.4215 71.1716 29.1717C70.4215 29.9218 70 30.9392 70 32.0001V54.6667C70 55.0204 69.8596 55.3595 69.6095 55.6096C69.3595 55.8596 69.0203 56.0001 68.6667 56.0001C68.3131 56.0001 67.9739 55.8596 67.7239 55.6096C67.4739 55.3595 67.3334 55.0204 67.3334 54.6667V32.0001C67.3334 30.9392 66.9119 29.9218 66.1618 29.1717C65.4117 28.4215 64.3942 28.0001 63.3334 28.0001C62.2725 28.0001 61.2551 28.4215 60.505 29.1717C59.7548 29.9218 59.3334 30.9392 59.3334 32.0001V54.6667C59.3334 55.0204 59.1929 55.3595 58.9429 55.6096C58.6928 55.8596 58.3537 56.0001 58 56.0001C57.6464 56.0001 57.3073 55.8596 57.0572 55.6096C56.8072 55.3595 56.6667 55.0204 56.6667 54.6667V32.0001C56.6667 30.9392 56.2453 29.9218 55.4951 29.1717C54.745 28.4215 53.7276 28.0001 52.6667 28.0001C51.6058 28.0001 50.5884 28.4215 49.8383 29.1717C49.0881 29.9218 48.6667 30.9392 48.6667 32.0001V54.6667C48.6667 55.0204 48.5262 55.3595 48.2762 55.6096C48.0261 55.8596 47.687 56.0001 47.3334 56.0001C46.9798 56.0001 46.6406 55.8596 46.3906 55.6096C46.1405 55.3595 46 55.0204 46 54.6667V32.0001C46 30.9392 45.5786 29.9218 44.8285 29.1717C44.0783 28.4215 43.0609 28.0001 42 28.0001C40.9392 28.0001 39.9218 28.4215 39.1716 29.1717C38.4215 29.9218 38 30.9392 38 32.0001V54.6667C38 55.0204 37.8596 55.3595 37.6095 55.6096C37.3595 55.8596 37.0203 56.0001 36.6667 56.0001C36.3131 56.0001 35.9739 55.8596 35.7239 55.6096C35.4739 55.3595 35.3334 55.0204 35.3334 54.6667V32.0001C35.3334 30.9392 34.9119 29.9218 34.1618 29.1717C33.4117 28.4215 32.3942 28.0001 31.3334 28.0001C30.2725 28.0001 29.2551 28.4215 28.5049 29.1717C27.7548 29.9218 27.3334 30.9392 27.3334 32.0001V54.6667C27.3334 55.0204 27.1929 55.3595 26.9429 55.6096C26.6928 55.8596 26.3537 56.0001 26 56.0001C25.6464 56.0001 25.3073 55.8596 25.0572 55.6096C24.8072 55.3595 24.6667 55.0204 24.6667 54.6667V32.0001C24.6655 30.9396 24.2437 29.9229 23.4938 29.173C22.7439 28.4231 21.7272 28.0013 20.6667 28.0001H18V25.3334H82V56.0001Z" fill="#3766CC"/>
<path d="M84.6667 66.6667H82V69.3334H84.6667V66.6667Z" fill="#3766CC"/>
<path d="M79.3334 66.6667H76.6667V69.3334H79.3334V66.6667Z" fill="#3766CC"/>
<path d="M18 66.6667H15.3334V69.3334H18V66.6667Z" fill="#3766CC"/>
<path d="M23.3333 66.6667H20.6666V69.3334H23.3333V66.6667Z" fill="#3766CC"/>
</svg>
